// Jest Snapshot v1, https://goo.gl/fbAQLP

exports[`Render Snackbar should open snackbar 1`] = `
ShallowWrapper {
  "length": 1,
  Symbol(enzyme.__root__): [Circular],
  Symbol(enzyme.__unrendered__): <SocialLogin
    SignInWithPopup={[MockFunction]}
  />,
  Symbol(enzyme.__renderer__): Object {
    "batchedUpdates": [Function],
    "getNode": [Function],
    "render": [Function],
    "simulateEvent": [Function],
    "unmount": [Function],
  },
  Symbol(enzyme.__node__): Object {
    "instance": null,
    "key": undefined,
    "nodeType": "host",
    "props": Object {
      "children": Array [
        <FlatButton
          disabled={false}
          fullWidth={true}
          id="btnFacebook"
          label="Login with Facebook"
          labelPosition="after"
          labelStyle={Object {}}
          onClick={[Function]}
          onKeyboardFocus={[Function]}
          onMouseEnter={[Function]}
          onMouseLeave={[Function]}
          onTouchStart={[Function]}
          primary={true}
          secondary={false}
          type="submit"
        />,
        <FlatButton
          disabled={false}
          fullWidth={true}
          id="btnGoogle"
          label="Login with Google"
          labelPosition="after"
          labelStyle={Object {}}
          onClick={[Function]}
          onKeyboardFocus={[Function]}
          onMouseEnter={[Function]}
          onMouseLeave={[Function]}
          onTouchStart={[Function]}
          primary={true}
          secondary={false}
          type="submit"
        />,
        <Snackbar
          autoHideDuration={4000}
          message="Snackbar Mesasge"
          onRequestClose={[Function]}
          open={true}
        />,
      ],
    },
    "ref": null,
    "rendered": Array [
      Object {
        "instance": null,
        "key": undefined,
        "nodeType": "class",
        "props": Object {
          "disabled": false,
          "fullWidth": true,
          "id": "btnFacebook",
          "label": "Login with Facebook",
          "labelPosition": "after",
          "labelStyle": Object {},
          "onClick": [Function],
          "onKeyboardFocus": [Function],
          "onMouseEnter": [Function],
          "onMouseLeave": [Function],
          "onTouchStart": [Function],
          "primary": true,
          "secondary": false,
          "type": "submit",
        },
        "ref": null,
        "rendered": null,
        "type": [Function],
      },
      Object {
        "instance": null,
        "key": undefined,
        "nodeType": "class",
        "props": Object {
          "disabled": false,
          "fullWidth": true,
          "id": "btnGoogle",
          "label": "Login with Google",
          "labelPosition": "after",
          "labelStyle": Object {},
          "onClick": [Function],
          "onKeyboardFocus": [Function],
          "onMouseEnter": [Function],
          "onMouseLeave": [Function],
          "onTouchStart": [Function],
          "primary": true,
          "secondary": false,
          "type": "submit",
        },
        "ref": null,
        "rendered": null,
        "type": [Function],
      },
      Object {
        "instance": null,
        "key": undefined,
        "nodeType": "class",
        "props": Object {
          "autoHideDuration": 4000,
          "message": "Snackbar Mesasge",
          "onRequestClose": [Function],
          "open": true,
        },
        "ref": null,
        "rendered": null,
        "type": [Function],
      },
    ],
    "type": "div",
  },
  Symbol(enzyme.__nodes__): Array [
    Object {
      "instance": null,
      "key": undefined,
      "nodeType": "host",
      "props": Object {
        "children": Array [
          <FlatButton
            disabled={false}
            fullWidth={true}
            id="btnFacebook"
            label="Login with Facebook"
            labelPosition="after"
            labelStyle={Object {}}
            onClick={[Function]}
            onKeyboardFocus={[Function]}
            onMouseEnter={[Function]}
            onMouseLeave={[Function]}
            onTouchStart={[Function]}
            primary={true}
            secondary={false}
            type="submit"
          />,
          <FlatButton
            disabled={false}
            fullWidth={true}
            id="btnGoogle"
            label="Login with Google"
            labelPosition="after"
            labelStyle={Object {}}
            onClick={[Function]}
            onKeyboardFocus={[Function]}
            onMouseEnter={[Function]}
            onMouseLeave={[Function]}
            onTouchStart={[Function]}
            primary={true}
            secondary={false}
            type="submit"
          />,
          <Snackbar
            autoHideDuration={4000}
            message="Snackbar Mesasge"
            onRequestClose={[Function]}
            open={true}
          />,
        ],
      },
      "ref": null,
      "rendered": Array [
        Object {
          "instance": null,
          "key": undefined,
          "nodeType": "class",
          "props": Object {
            "disabled": false,
            "fullWidth": true,
            "id": "btnFacebook",
            "label": "Login with Facebook",
            "labelPosition": "after",
            "labelStyle": Object {},
            "onClick": [Function],
            "onKeyboardFocus": [Function],
            "onMouseEnter": [Function],
            "onMouseLeave": [Function],
            "onTouchStart": [Function],
            "primary": true,
            "secondary": false,
            "type": "submit",
          },
          "ref": null,
          "rendered": null,
          "type": [Function],
        },
        Object {
          "instance": null,
          "key": undefined,
          "nodeType": "class",
          "props": Object {
            "disabled": false,
            "fullWidth": true,
            "id": "btnGoogle",
            "label": "Login with Google",
            "labelPosition": "after",
            "labelStyle": Object {},
            "onClick": [Function],
            "onKeyboardFocus": [Function],
            "onMouseEnter": [Function],
            "onMouseLeave": [Function],
            "onTouchStart": [Function],
            "primary": true,
            "secondary": false,
            "type": "submit",
          },
          "ref": null,
          "rendered": null,
          "type": [Function],
        },
        Object {
          "instance": null,
          "key": undefined,
          "nodeType": "class",
          "props": Object {
            "autoHideDuration": 4000,
            "message": "Snackbar Mesasge",
            "onRequestClose": [Function],
            "open": true,
          },
          "ref": null,
          "rendered": null,
          "type": [Function],
        },
      ],
      "type": "div",
    },
  ],
  Symbol(enzyme.__options__): Object {
    "adapter": ReactSixteenAdapter {
      "options": Object {
        "enableComponentDidUpdateOnSetState": true,
      },
    },
  },
}
`;

exports[`Rendering should render button successful 1`] = `
ShallowWrapper {
  "length": 1,
  Symbol(enzyme.__root__): [Circular],
  Symbol(enzyme.__unrendered__): <SocialLogin
    SignInWithPopup={[MockFunction]}
  />,
  Symbol(enzyme.__renderer__): Object {
    "batchedUpdates": [Function],
    "getNode": [Function],
    "render": [Function],
    "simulateEvent": [Function],
    "unmount": [Function],
  },
  Symbol(enzyme.__node__): Object {
    "instance": null,
    "key": undefined,
    "nodeType": "host",
    "props": Object {
      "children": Array [
        <FlatButton
          disabled={false}
          fullWidth={true}
          id="btnFacebook"
          label="Login with Facebook"
          labelPosition="after"
          labelStyle={Object {}}
          onClick={[Function]}
          onKeyboardFocus={[Function]}
          onMouseEnter={[Function]}
          onMouseLeave={[Function]}
          onTouchStart={[Function]}
          primary={true}
          secondary={false}
          type="submit"
        />,
        <FlatButton
          disabled={false}
          fullWidth={true}
          id="btnGoogle"
          label="Login with Google"
          labelPosition="after"
          labelStyle={Object {}}
          onClick={[Function]}
          onKeyboardFocus={[Function]}
          onMouseEnter={[Function]}
          onMouseLeave={[Function]}
          onTouchStart={[Function]}
          primary={true}
          secondary={false}
          type="submit"
        />,
        false,
      ],
    },
    "ref": null,
    "rendered": Array [
      Object {
        "instance": null,
        "key": undefined,
        "nodeType": "class",
        "props": Object {
          "disabled": false,
          "fullWidth": true,
          "id": "btnFacebook",
          "label": "Login with Facebook",
          "labelPosition": "after",
          "labelStyle": Object {},
          "onClick": [Function],
          "onKeyboardFocus": [Function],
          "onMouseEnter": [Function],
          "onMouseLeave": [Function],
          "onTouchStart": [Function],
          "primary": true,
          "secondary": false,
          "type": "submit",
        },
        "ref": null,
        "rendered": null,
        "type": [Function],
      },
      Object {
        "instance": null,
        "key": undefined,
        "nodeType": "class",
        "props": Object {
          "disabled": false,
          "fullWidth": true,
          "id": "btnGoogle",
          "label": "Login with Google",
          "labelPosition": "after",
          "labelStyle": Object {},
          "onClick": [Function],
          "onKeyboardFocus": [Function],
          "onMouseEnter": [Function],
          "onMouseLeave": [Function],
          "onTouchStart": [Function],
          "primary": true,
          "secondary": false,
          "type": "submit",
        },
        "ref": null,
        "rendered": null,
        "type": [Function],
      },
      false,
    ],
    "type": "div",
  },
  Symbol(enzyme.__nodes__): Array [
    Object {
      "instance": null,
      "key": undefined,
      "nodeType": "host",
      "props": Object {
        "children": Array [
          <FlatButton
            disabled={false}
            fullWidth={true}
            id="btnFacebook"
            label="Login with Facebook"
            labelPosition="after"
            labelStyle={Object {}}
            onClick={[Function]}
            onKeyboardFocus={[Function]}
            onMouseEnter={[Function]}
            onMouseLeave={[Function]}
            onTouchStart={[Function]}
            primary={true}
            secondary={false}
            type="submit"
          />,
          <FlatButton
            disabled={false}
            fullWidth={true}
            id="btnGoogle"
            label="Login with Google"
            labelPosition="after"
            labelStyle={Object {}}
            onClick={[Function]}
            onKeyboardFocus={[Function]}
            onMouseEnter={[Function]}
            onMouseLeave={[Function]}
            onTouchStart={[Function]}
            primary={true}
            secondary={false}
            type="submit"
          />,
          false,
        ],
      },
      "ref": null,
      "rendered": Array [
        Object {
          "instance": null,
          "key": undefined,
          "nodeType": "class",
          "props": Object {
            "disabled": false,
            "fullWidth": true,
            "id": "btnFacebook",
            "label": "Login with Facebook",
            "labelPosition": "after",
            "labelStyle": Object {},
            "onClick": [Function],
            "onKeyboardFocus": [Function],
            "onMouseEnter": [Function],
            "onMouseLeave": [Function],
            "onTouchStart": [Function],
            "primary": true,
            "secondary": false,
            "type": "submit",
          },
          "ref": null,
          "rendered": null,
          "type": [Function],
        },
        Object {
          "instance": null,
          "key": undefined,
          "nodeType": "class",
          "props": Object {
            "disabled": false,
            "fullWidth": true,
            "id": "btnGoogle",
            "label": "Login with Google",
            "labelPosition": "after",
            "labelStyle": Object {},
            "onClick": [Function],
            "onKeyboardFocus": [Function],
            "onMouseEnter": [Function],
            "onMouseLeave": [Function],
            "onTouchStart": [Function],
            "primary": true,
            "secondary": false,
            "type": "submit",
          },
          "ref": null,
          "rendered": null,
          "type": [Function],
        },
        false,
      ],
      "type": "div",
    },
  ],
  Symbol(enzyme.__options__): Object {
    "adapter": ReactSixteenAdapter {
      "options": Object {
        "enableComponentDidUpdateOnSetState": true,
      },
    },
  },
}
`;
